1 10 20
100 200 125
201 210 89
900 1000 174
1 20 21
100 400 144
101 110 114
500 600 137
2 10 20
150 200 125
301 310 87
700 800 171
2 20 21
101 300 128
100 210 125
750 1000 179
1 40 112
100 450 144
400 600 142
50 100 119
2 8 17
150 300 128
85 120 119
704 740 140
67234 2349 1
2349 3242 217
2372 9000 262
4234 4728 215
4123 78990 351
789 900 179
234 300 128
52367 89003 351
32478 32482 86
7834 8000 252
324 589 144
2348 3889 238
234 463 144
5879 27899 308
234 1000 179
783 6789 262
738 847 153
238 434 144
234 900 179
15 40 112
10 80 116
234 600 144
7093 9000 252
9000 21000 279
343 23488 279
6783 7899 257
599 700 145
734 900 179
1399 1500 172
762 900 179
11 55 113
100 434 144
400 600 142
50 100 119
2 900 179
150 450 144
85 170 122
804 7893 262
670 2400 183
23499 32422 308
23723 90006 351
44234 47280 314
7834 8934 252
600 950 179
235 1800 182
2304 8034 262
67834 78903 351
374 789 171
324 589 144
22434 78355 351
78394 703498 509
23675 76789 340
42789 67893 340
6834 57940 340
28 683 145
6345 7890 257
234 8945 262
2789 7945 262
87934 783944 509
4783 9045 262
472 700 145
845 7890 262
2347 8903 262
884 1000 174
2347 9000 262
327 800 171
90 100 119
20 4000 238
73 894 179
456 789 171
123 567 144
68 97 119
45 900 179
654 876 179
987 7652 262
3423 7834 262
2873 7833 262
89034 527890 470
90234 100000 333
4673 9874 262
234 895 179
999 10000 262
27 89 116
34 875 179
234 9604 262
271 85964 351
399 700 145
831 1100 179
348 900 179
8785 10000 260
2385 7934 262
945 6789 262
734 903 179
450 900 179
7823 9384 260
348 890 179
